0000000000022410070410420315             CMA              
0000000000022410070410430315             CMA              
0000000000022610053100000000             CMA              
0000000000022610060100000000             CMA              
0000000000022610060200000000             CMA              
0000000000022610060300000000             CMA              
0000000000022610060400000000             CMA              
0000000000022610060500000000             CMA              
0000000000022610060600000000             CMA              
0000000000022610060700000000             CMA              
0000000000022610060800000000             CMA              
0000000000022610060900000000             CMA              
0000000000022610061000000000             CMA              
0000000000022610061100000000             CMA              
0000000000022610061200000000             CMA              
0000000000022610061300000000             CMA              