0000000003102712090310100800             IMF              
0000000003102712090410100700             IMF              
0000000003102712090510100700             IMF              
0000000003102712090600000000             IMF              
0000000003102712090710100700             IMF              
0000000003102712090800000000             IMF              
0000000003102712090910100600             IMF              
0000000003102712091010100700             IMF              
0000000003102712091110100500             IMF              
0000000003102712091210100800             IMF              
0000000003102712091300000000             IMF              
0000000003102712091410100800             IMF              
0000000003102712091510100700             IMF              
0000000003102712091600000000             IMF              
0000000003102712091710100700             IMF              
0000000003102712091810100800             IMF              
0000000003102712091910100600             IMF              
0000000003102712092000000000             IMF              
0000000003102712092110100700             IMF              
0000000003102712092210100700             IMF              
0000000003102712092300000000             IMF              
0000000003102712092410240800             IMF              
0000000003102712092510100700             IMF              
0000000003102712092610100700             IMF              
0000000003102712092710100700             IMF              
0000000003102712092800000000             IMF              
0000000003102712092900000000             IMF              
0000000003102712093010100600             IMF              
0000000003104412090310100800             IMF              
0000000003104412090410100400             IMF              
0000000003104412090510100700             IMF              
0000000003104412090610100800             IMF              
0000000003104412090700000000             IMF              
0000000003104412090810100800             IMF              
0000000003104412090900000000             IMF              
0000000003104412091010100400             IMF              
0000000003104412091100000000             IMF              
0000000003105912091210100700             IMF              
0000000003105912091310100900             IMF              
0000000003105912091410100900             IMF              
0000000003105912091500000000             IMF              
0000000003105912091610100500             IMF              
0000000003105912091680450100             IMF              
0000000003105912091685520900             IMF              
0000000003105912091710100800             IMF              
0000000003105912091800000000             IMF              
0000000003105912091910240800             IMF              
0000000003105912092010100800             IMF              
0000000003105912092110100400             IMF              
0000000003105912092210100700             IMF              
0000000003105912092300000000             IMF              
0000000003105912092410100700             IMF              
0000000003105912092500000000             IMF              
0000000003105912092610240800             IMF              
0000000003105912092710100700             IMF              
0000000003105912092810100700             IMF              
0000000003105912092910100600             IMF              
0000000003105912093000000000             IMF              
0000000004084312090312600700             IMF              
0000000004084312090412600700             IMF              
0000000004084312090512600700             IMF              
0000000004084312090612600700             IMF              
0000000004084312090700000000             IMF              
0000000004084312090800000000             IMF              
0000000004084312090900000000             IMF              
0000000004084312091012600700             IMF              
0000000004084312091112600700             IMF              
0000000004084312091212600700             IMF              
0000000004084312091312600700             IMF              
0000000004084312091400000000             IMF              
0000000004084312091500000000             IMF              
0000000004084312091600000000             IMF              
0000000004084312091700000000             IMF              
0000000004084312091810100675             IMF              
0000000004084312091910100800             IMF              
0000000004084312092010100675             IMF              
0000000004084312092100000000             IMF              
0000000004084312092210100650             IMF              
0000000004084312092300000000             IMF              
0000000004084312092410100700             IMF              
0000000004084312092510100700             IMF              
0000000004084312092610100700             IMF              
0000000004084312092700000000             IMF              
0000000004084312092810100700             IMF              
0000000004084312092900000000             IMF              
0000000004084312093000000000             IMF              
0000000004084412090310100700             IMF              
0000000004084412090410100700             IMF              
0000000004084412090510100700             IMF              
0000000004084412090600000000             IMF              
0000000004084412090710100700             IMF              
0000000004084412090810100700             IMF              
0000000004084412090900000000             IMF              
0000000004084412091010100700             IMF              
0000000004084412091110100700             IMF              
0000000004084412091210100700             IMF              
0000000004084412091310100700             IMF              
0000000004084412091400000000             IMF              
0000000004084412091510100700             IMF              
0000000004084412091600000000             IMF              
0000000004084412091710100700             IMF              
0000000004084412091810100700             IMF              
0000000004084412091910100700             IMF              
0000000004084412092010100700             IMF              
0000000004084412092110100700             IMF              
0000000004084412092200000000             IMF              
0000000004084412092300000000             IMF              
0000000004084412092400000000             IMF              
0000000004084412092510100700             IMF              
0000000004084412092610100700             IMF              
0000000004084412092710100700             IMF              
0000000004084412092810100700             IMF              
0000000004084412092910100700             IMF              
0000000004084412093000000000             IMF              
0000000005034312090300000000             IMF              
0000000005034312090412900600             IMF              
0000000005034312090510100750             IMF              
0000000005034312090610510700             IMF              
0000000005034312090710100800             IMF              
0000000005034312090800000000             IMF              
0000000005034312090910100650             IMF              
0000000005034312091010100600             IMF              
0000000005034312091110100875             IMF              
0000000005034312091200000000             IMF              
0000000005034312091310100800             IMF              
0000000005034312091410100600             IMF              
0000000005034312091500000000             IMF              
0000000005034312091610100625             IMF              
0000000005034312091710100525             IMF              
0000000005034312091810100800             IMF              
0000000005034312091910100600             IMF              
0000000005034312092010100800             IMF              
0000000005034312092110100775             IMF              
0000000005034312092200000000             IMF              
0000000005034312092300000000             IMF              
0000000005034312092410100775             IMF              
0000000005034312092510100450             IMF              
0000000005034312092600000000             IMF              
0000000005034312092710510800             IMF              
0000000005034312092810100775             IMF              
0000000005034312092910100700             IMF              
0000000005034312093000000000             IMF              
0000000007302012090310100550             IMF              
0000000007302012090310490150             IMF              
0000000007302012090400000000             IMF              
0000000007302012090500000000             IMF              
0000000007302012090610100700             IMF              
0000000007302012090700000000             IMF              
0000000007302012090810100450             IMF              
0000000007302012090810490250             IMF              
0000000007302012090900000000             IMF              
0000000007302012091000000000             IMF              
0000000007302012091110100700             IMF              
0000000007302012091200000000             IMF              
0000000007302012091300000000             IMF              
0000000007302012091410100700             IMF              
0000000007302012091510100700             IMF              
0000000007302012091600000000             IMF              
0000000007302012091700000000             IMF              
0000000007302012091810100700             IMF              
0000000007302012091910100700             IMF              
0000000007302012092000000000             IMF              
0000000007302012092100000000             IMF              
0000000007302012092210100700             IMF              
0000000007302012092300000000             IMF              
0000000007302012092400000000             IMF              
0000000007302012092500000000             IMF              
0000000007302012092610100750             IMF              
0000000007302012092710100700             IMF              
0000000007302012092800000000             IMF              
0000000007302012092900000000             IMF              
0000000007302012093010100650             IMF              
0000000007302012093080420650             IMF              
0000000007302412090310100800             IMF              
0000000007302412090410100800             IMF              
0000000007302412090510100800             IMF              
0000000007302412090600000000             IMF              
0000000007302412090710100800             IMF              
0000000007302412090800000000             IMF              
0000000007302412090900000000             IMF              
0000000007302412091010510500             IMF              
0000000007302412091110100900             IMF              
0000000007302412091200000000             IMF              
0000000007302412091300000000             IMF              
0000000007302412091410100900             IMF              
0000000007302412091510100900             IMF              
0000000007302412091600000000             IMF              
0000000007302412091710100800             IMF              
0000000007302412091800000000             IMF              
0000000007302412091910100800             IMF              
0000000007302412092000000000             IMF              
0000000007302412092110100800             IMF              
0000000007302412092210100800             IMF              
0000000007302412092300000000             IMF              
0000000007302412092410100800             IMF              
0000000007302412092510100800             IMF              
0000000007302412092600000000             IMF              
0000000007302412092710100800             IMF              
0000000007302412092800000000             IMF              
0000000007302412092910100800             IMF              
0000000007302412093000000000             IMF              
0000000007303012090300000000             IMF              
0000000007303012090410100550             IMF              
0000000007303012090410490150             IMF              
0000000007303012090500000000             IMF              
0000000007303012090610100700             IMF              
0000000007303012090700000000             IMF              
0000000007303012090810490700             IMF              
0000000007303012090900000000             IMF              
0000000007303012091010100700             IMF              
0000000007303012091100000000             IMF              
0000000007303012091210100050             IMF              
0000000007303012091210490650             IMF              
0000000007303012091310100700             IMF              
0000000007303012091400000000             IMF              
0000000007303012091500000000             IMF              
0000000007303012091600000000             IMF              
0000000007303012091700000000             IMF              
0000000007303012091810100750             IMF              
0000000007303012091900000000             IMF              
0000000007303012092000000000             IMF              
0000000007303012092110100700             IMF              
0000000007303012092200000000             IMF              
0000000007303012092310100650             IMF              
0000000007303012092380420650             IMF              
0000000007303012092410100750             IMF              
0000000007303012092500000000             IMF              
0000000007303012092600000000             IMF              
0000000007303012092714700650             IMF              
0000000007303012092800000000             IMF              
0000000007303012092910100700             IMF              
0000000007303012093000000000             IMF              
0000000007303112090300000000             IMF              
0000000007303112090410510400             IMF              
0000000007303112090515000100             IMF              
0000000007303112090610490850             IMF              
0000000007303112090700000000             IMF              
0000000007303112090800000000             IMF              
0000000007303112090910100650             IMF              
0000000007303112090980420650             IMF              
0000000007303112091000000000             IMF              
0000000007303112091110100650             IMF              
0000000007303112091210100450             IMF              
0000000007303112091210490250             IMF              
0000000007303112091314700650             IMF              
0000000007303112091400000000             IMF              
0000000007303112091500000000             IMF              
0000000007303112091600000000             IMF              
0000000007303112091710100650             IMF              
0000000007303112091800000000             IMF              
0000000007303112091900000000             IMF              
0000000007303112092010100650             IMF              
0000000007303112092100000000             IMF              
0000000007303112092210100700             IMF              
0000000007303112092300000000             IMF              
0000000007303112092410100800             IMF              
0000000007303112092500000000             IMF              
0000000007303112092610100800             IMF              
0000000007303112092700000000             IMF              
0000000007303112092800000000             IMF              
0000000007303112092900000000             IMF              
0000000007303112093000000000             IMF              
0000000007356912090312600700             IMF              
0000000007356912090412600775             IMF              
0000000007356912090514700625             IMF              
0000000007356912090600000000             IMF              
0000000007356912090700000000             IMF              
0000000007356912090800000000             IMF              
0000000007356912090900000000             IMF              
0000000007356912091012600700             IMF              
0000000007356912091112600700             IMF              
0000000007356912091212600700             IMF              
0000000007356912091300000000             IMF              
0000000007356912091400000000             IMF              
0000000007356912091500000000             IMF              
0000000007356912091600000000             IMF              
0000000007356912091712600625             IMF              
0000000007356912091812900700             IMF              
0000000007356912091912900775             IMF              
0000000007356912092000000000             IMF              
0000000007356912092100000000             IMF              
0000000007356912092200000000             IMF              
0000000007356912092300000000             IMF              
0000000007356912092400000000             IMF              
0000000007356912092510100700             IMF              
0000000007356912092600000000             IMF              
0000000007356912092700000000             IMF              
0000000007356912092810100700             IMF              
0000000007356912092910100700             IMF              
0000000007356912093000000000             IMF              
