0000000004096113020410100900             GNI              
0000000004096113020485500100             GNI              
0000000004096113020500000000             GNI              
0000000004096113020610100650             GNI              
0000000004096113020710100625             GNI              
0000000004096113020800000000             GNI              
0000000004096113020910100825             GNI              
0000000004096113021010410300             GNI              
