0000000000085810071900000000             OBL              
0000000000085810072010100900             OBL              
0000000000085810072100000000             OBL              
0000000000085810072200000000             OBL              
0000000000085810072310100900             OBL              
0000000000085810072410100900             OBL              
0000000000085810072410130125             OBL              
0000000000085810072510100800             OBL              
0000000000085810072510430800             OBL              
0000000003085410071996200900             OBL              
0000000003085410072096200325             OBL              
0000000003085410072100000000             OBL              
0000000003085410072296200900             OBL              
0000000003085410072396200675             OBL              
0000000003085410072400000000             OBL              
0000000003085410072500000000             OBL              
0000000003085810071900000000             OBL              
0000000003085810072010100825             OBL              
0000000003085810072110100800             OBL              
0000000003085810072110430800             OBL              
0000000003085810072210100050             OBL              
0000000003085810072210490850             OBL              
0000000003085810072300000000             OBL              
0000000003085810072410100675             OBL              
0000000003085810072410130125             OBL              
0000000003085810072500000000             OBL              
0000000003092910071910100050             OBL              
0000000003092910071910490850             OBL              
0000000003092910072000000000             OBL              
0000000003092910072110100775             OBL              
0000000003092910072110430775             OBL              
0000000003092910072200000000             OBL              
0000000003092910072310100300             OBL              
0000000003092910072410100825             OBL              
0000000003092910072500000000             OBL              