0000000080051810112210100900             110              
0000000080051810112310100200             110              
0000000080051810112400000000             110              
0000000080051810112510100833             110              
0000000080051810112610100900             110              
0000000080051810112700000000             110              
0000000080051810112800000000             110              
