0000000004105010120810100600             ILN              
0000000004105010120910100600             ILN              
0000000004105010121010100700             ILN              
0000000004105010121110100700             ILN              
0000000004105010121210100600             ILN              
0000000004105010121210450100             ILN              
0000000004105010121285501200             ILN              
0000000004105010121310100700             ILN              
0000000004105010121410240800             ILN              
0000000004105010121510100700             ILN              
0000000004105010121600000000             ILN              
0000000004105010121710100600             ILN              
0000000004105010121810100700             ILN              
0000000004105010121900000000             ILN              
0000000004105010122010100700             ILN              
0000000004105010122110240800             ILN              
0000000004105010122210100700             ILN              
0000000004105010122300000000             ILN              
0000000004105010122410100600             ILN              
0000000004105010122513500700             ILN              
0000000004105010122600000000             ILN              
0000000004105010122700000000             ILN              
0000000004105010122810100700             ILN              
0000000004105010122910100700             ILN              
0000000004105010123010100700             ILN              
0000000004105010123110100700             ILN              
0000000004105011010113500700             ILN              
0000000004105011010200000000             ILN              
0000000005012110112900000000             ILN              
0000000005012110113010100800             ILN              
0000000005012110120110100300             ILN              
0000000005012110120210100900             ILN              
0000000005012110120310100800             ILN              
0000000005012110120410100700             ILN              
0000000005012110120500000000             ILN              
0000000005012110120600000000             ILN              
0000000005012110120710100700             ILN              
0000000005012110120810100400             ILN              
0000000005012110120910100800             ILN              
0000000005012110121000000000             ILN              
0000000005012110121110100900             ILN              
0000000005012110121210100700             ILN              
0000000005012110121300000000             ILN              
0000000005012110121410100500             ILN              
0000000005012110121510100800             ILN              
0000000005012110121610100900             ILN              
0000000005012110121700000000             ILN              
0000000005012110121810100900             ILN              
0000000005012110121910100400             ILN              
0000000005012110122010100400             ILN              
0000000005012110122110100800             ILN              
0000000005012110122210100700             ILN              
0000000005012110122310100900             ILN              
0000000005012110122400000000             ILN              
0000000005012110122513500700             ILN              
0000000005012110122600000000             ILN              
0000000005012110122700000000             ILN              
0000000005012110122810100700             ILN              
0000000005012110122910100700             ILN              
0000000005012110123010100700             ILN              
0000000005012110123110100700             ILN              
0000000005012111010113500700             ILN              
0000000005012111010200000000             ILN              