0000000080009010110113500830             180              
0000000080009010110210100830             180              
0000000080009010110310100830             180              
0000000080009010110413500200             180              
0000000080009010110510100715             180              
0000000080009010110600000000             180              
0000000080009010110710410130             180              
0000000080009010110810100830             180              
0000000080009010110910100830             180              
0000000080009010111010100830             180              
0000000080009010111110100715             180              
0000000080009010111200000000             180              
0000000080009010111300000000             180              
0000000080009010111400000000             180              
0000000080009010111510100830             180              
0000000080009010111610100830             180              
0000000080009010111700000000             180              
0000000080009010111810100830             180              
0000000080009010111910100745             180              
0000000080009010112000000000             180              
0000000080009010112100000000             180              
0000000080009010112200000000             180              
0000000080009010112300000000             180              
0000000080009010112400000000             180              
0000000080009010112500000000             180              
0000000080009010112600000000             180              
0000000080009010112700000000             180              
0000000080009010112800000000             180              
