0000000007023310041910100825             OBA              
0000000007023310042010100825             OBA              
0000000007023310042110100825             OBA              
0000000007023310042200000000             OBA              
0000000007023310042310100300             OBA              
0000000007023310042400000000             OBA              
0000000007023310042510100725             OBA              
0000000007023310042510430775             OBA              
0000000007023310042510450050             OBA              
