0000000003074310042600000000             OBK              
0000000003074310042700000000             OBK              
0000000003074310042810100600             OBK              
0000000003074310042910100750             OBK              
0000000003074310043010100700             OBK              
0000000003074310050100000000             OBK              
0000000003074310050210100750             OBA              
0000000003074310050310100750             OBK              
0000000003074310050400000000             OBK              
0000000003074310050500000000             OBK              
0000000003074310050610100500             OBK              
0000000003074310050710100800             OBK              
0000000003074310050800000000             OBK              
0000000003074310050910100750             OBA              
0000000003074310050910430750             OBK              
0000000003074310051000000000             OBK              
0000000003074310051110100750             OBK              
0000000003074310051200000000             OBK              
0000000003074310051300000000             OBK              
0000000003074310051410100550             OBK              
0000000003074310051510100750             OBK              
0000000003074310051610100750             OBA              
0000000003074310051610430750             OBK              
0000000003074310051712600560             OBK              
0000000003074310051812600560             OBK              
0000000003074310051912600560             OBK              
0000000003074310052012600560             OBK              
0000000003074310052112600560             OBK              
0000000003074310052200000000             OBK              
0000000003074310052300000000             OBK              
0000000003074310052400000000             OBK              
0000000003074310052500000000             OBK              
0000000003074310052600000000             OBK              
0000000003074310052710100750             OBK              
0000000003074310052810100550             OBK              
0000000003074310052910100750             OBK              
0000000003074310053010100750             OBA              
0000000003074310053010430750             OBK              
0000000003074310053110100500             OBK              