0000000007026010062810100050             OOT              
0000000007026010062810490750             OOT              
0000000007026010062900000000             OOT              
0000000007026010063010100800             OOT              
0000000007026010070100000000             OOT              
0000000007026010070210100800             OOT              
0000000007026010070300000000             OOT              
0000000007026010070410100800             OOT              
0000000007026010070410410400             OOT              
0000000007026010070410430800             OOT              
0000000007026010070500000000             OOT              
0000000007026010070600000000             OOT              
0000000007026010070710100800             OOT              
0000000007026010070810100800             OOT              
0000000007026010070910100400             OOT              
0000000007026010071010100800             OOT              
0000000007026010071110100400             OOK              
0000000007026010071110410400             OOT              
0000000007026010071110420400             OOK              
0000000007026010071110430400             OOT              
0000000007026010071212600800             OOT              
0000000007026010071300000000             OOT              
0000000007026010071400000000             OOT              
0000000007026010071512600800             OOT              
0000000007026010071612600800             OOT              
0000000007026010071700000000             OOT              
0000000007026010071810100400             OOK              
0000000007026010071810430400             OOT              
0000000007026010071912600800             OOT              
0000000007026010072012600700             OOT              
0000000007026010072110100400             OOK              
0000000007026010072110430400             OOT              
0000000007026010072113500200             OOT              
0000000007026010072212600700             OOT              
0000000007026010072300000000             OOT              
0000000007026010072400000000             OOT              
0000000007026010072500000000             OOT              
0000000007026010072612600700             OOT              
0000000007026010072712600700             OOT              
0000000007026010072812600700             OOT              
0000000007026010072912600700             OOT              
0000000007026010073000000000             OOT              
0000000007026010073100000000             OOT              
0000000007026010080100000000             OOT              
0000000003074310062810100600             OBK              
0000000003074310062910100750             OBK              
0000000003074310063000000000             OBK              
0000000003074310070100000000             OBK              
0000000003074310070210100700             OBK              
0000000003074310070300000000             OBK              
0000000003074310070410100750             OBA              
0000000003074310070410430750             OBK              
0000000003074310070510100550             OBK              
0000000003074310070610100750             OBA              
0000000003074310070700000000             OBK              
0000000003074310070810100750             OBK              
0000000003074310070900000000             OBK              
0000000003074310071010100750             OBK              
0000000003074310071100000000             OBK              
0000000003074310071210100750             OBK              
0000000003074310071310100750             OBK              
0000000003074310071400000000             OBK              
0000000003074310071510100550             OBK              
0000000003074310071600000000             OBK              
0000000003074310071710100750             OBK              
0000000003074310071800000000             OBK              
0000000003074310071900000000             OBK              
0000000003074310072099000750             OBK              
0000000003074310072100000000             OBK              
0000000003074310072299000500             OBK              
0000000003074310072399000800             OBK              
0000000003074310072410100750             OBK              
0000000003074310072500000000             OBK              
0000000003074310072600000000             OBK              
0000000003074310072710100750             OBK              
0000000003074310072800000000             OBK              
0000000003074310072910100750             OBK              
0000000003074310073010100550             OBK              
0000000003074310073110100750             OBK              
0000000003074310080100000000             OBK              