0000000002056410112910100275             ILN              
0000000002056410112910490325             ILN              
0000000002056410113010100475             ILN              
0000000002056410113010490125             ILN              
0000000002056410120100000000             ILN              
0000000002056410120200000000             ILN              
0000000002056410120310100600             ILN              
0000000002056410120410100600             ILN              
0000000002056410120500000000             ILN              
0000000002056410120600000000             ILN              
0000000002056410120710100375             ILN              
0000000002056410120710490225             ILN              
0000000002056410120800000000             ILN              
0000000002056410120910100400             ILN              
0000000002056410120910490100             ILN              
0000000002056410121010100275             ILN              
0000000002056410121010490325             ILN              
0000000002056410121100000000             ILN              
0000000002056410121210100700             ILN              
0000000002056410121210420700             ILN              
0000000002056410121300000000             ILN              
0000000002056410121410100475             ILN              
0000000002056410121410490125             ILN              
0000000002056410121500000000             ILN              
0000000002056410121610100600             ILN              
0000000002056410121710100600             ILN              
0000000002056410121810100600             ILN              
0000000002056410121900000000             ILN              
0000000002056410122010100700             ILN              
0000000002056410122110100525             ILN              
0000000002056410122197100175             ILN              
0000000002056410122200000000             ILN              
0000000002056410122310100600             ILN              
0000000002056410122410100400             ILN              
0000000002056410122500000000             ILN              
0000000002056410122600000000             ILN              
0000000002056410122710100700             ILN              
0000000002056410122810100475             ILN              
0000000002056410122810490225             ILN              
0000000002056410122900000000             ILN              
0000000002056410123010100700             ILN              
0000000002056410123110100550             ILN              
0000000002056411010100000000             ILN              
0000000002056411010210410250             ILN              
0000000002056610112999000500             ILN              
0000000002056610113000000000             ILN              
0000000002056610120199000500             ILN              
0000000002056610120299000500             ILN              
0000000002056610120399000500             ILN              
0000000002056610120499000400             ILN              
0000000002056610120500000000             ILN              
0000000002056610120699000500             ILN              
0000000002056610120799000500             ILN              
0000000002056610120899000500             ILN              
0000000002056610120900000000             ILN              
0000000002056610121099000400             ILN              
0000000002056610121199000500             ILN              
0000000002056610121200000000             ILN              
0000000002056610121399000400             ILN              
0000000002056610121400000000             ILN              
0000000002056610121599000400             ILN              
0000000002056610121699000500             ILN              
0000000002056610121700000000             ILN              
0000000002056610121899000400             ILN              
0000000002056610121999000700             ILN              
0000000002056610122000000000             ILN              
0000000002056610122199000700             ILN              
0000000002056610122299000600             ILN              
0000000002056610122399000700             ILN              
0000000002056610122499000400             ILN              
0000000002056610122500000000             ILN              
0000000002056610122600000000             ILN              
0000000002056610122700000000             ILN              
0000000002056610122810100700             ILN              
0000000002056610122910100600             ILN              
0000000002056610123010100700             ILN              
0000000002056610123110100400             ILN              
0000000002056611010100000000             ILN              
0000000002056611010200000000             ILN              
0000000004023210112910100700             ILN              
0000000004023210113010100800             ILN              
0000000004023210113010130200             ILN              
0000000004023210120110100700             ILN              
0000000004023210120110130200             ILN              
0000000004023210120210100600             ILN              
0000000004023210120300000000             ILN              
0000000004023210120410140100             ILN              
0000000004023210120414700700             ILN              
0000000004023210120500000000             ILN              
0000000004023210120610100800             ILN              
0000000004023210120710100500             ILN              
0000000004023210120810100700             ILN              
0000000004023210120810130200             ILN              
0000000004023210120900000000             ILN              
0000000004023210121010100700             ILN              
0000000004023210121110100800             ILN              
0000000004023210121200000000             ILN              
0000000004023210121310100700             ILN              
0000000004023210121410100900             ILN              
0000000004023210121410130100             ILN              
0000000004023210121510100700             ILN              
0000000004023210121510130200             ILN              
0000000004023210121600000000             ILN              
0000000004023210121710100500             ILN              
0000000004023210121800000000             ILN              
0000000004023210121910100700             ILN              
0000000004023210121910420700             ILN              
0000000004023210122010100650             ILN              
0000000004023210122014700050             ILN              
0000000004023210122110100700             ILN              
0000000004023210122110130200             ILN              
0000000004023210122210100700             ILN              
0000000004023210122300000000             ILN              
0000000004023210122410100700             ILN              
0000000004023210122513500700             ILN              
0000000004023210122600000000             ILN              
0000000004023210122710100600             ILN              
0000000004023210122810100600             ILN              
0000000004023210122910100900             ILN              
0000000004023210122910130200             ILN              
0000000004023210123010100700             ILN              
0000000004023210123100000000             ILN              
0000000004023211010113500700             ILN              
0000000004023211010200000000             ILN              
0000000004067510112910100700             ILN              
0000000004067510113000000000             ILN              
0000000004067510120100000000             ILN              
0000000004067510120210100700             ILN              
0000000004067510120310100700             ILN              
0000000004067510120410100700             ILN              
0000000004067510120500000000             ILN              
0000000004067510120699000700             ILN              
0000000004067510120799000700             ILN              
0000000004067510120800000000             ILN              
0000000004067510120910100700             ILN              
0000000004067510121000000000             ILN              
0000000004067510121100000000             ILN              
0000000004067510121210100700             ILN              
0000000004067510121210420700             ILN              
0000000004067510121300000000             ILN              
0000000004067510121410100700             ILN              
0000000004067510121500000000             ILN              
0000000004067510121610100700             ILN              
0000000004067510121710100700             ILN              
0000000004067510121810100700             ILN              
0000000004067510121900000000             ILN              
0000000004067510122010100500             ILN              
0000000004067510122097100300             ILN              
0000000004067510122110100300             ILN              
0000000004067510122197100400             ILN              
0000000004067510122200000000             ILN              
0000000004067510122310100700             ILN              
0000000004067510122410100600             ILN              
0000000004067510122500000000             ILN              
0000000004067510122600000000             ILN              
0000000004067510122710100700             ILN              
0000000004067510122810100700             ILN              
0000000004067510122910100700             ILN              
0000000004067510123010100700             ILN              
0000000004067510123100000000             ILN              
0000000004067511010100000000             ILN              
0000000004067511010200000000             ILN              
0000000004074710112995200700             ILN              
0000000004074710113095200700             ILN              
0000000004074710120100000000             ILN              
0000000004074710120200000000             ILN              
0000000004074710120395200700             ILN              
0000000004074710120495200700             ILN              
0000000004074710120500000000             ILN              
0000000004074710120698400700             ILN              
0000000004074710120798400700             ILN              
0000000004074710120800000000             ILN              
0000000004074710120900000000             ILN              
0000000004074710121098400700             ILN              
0000000004074710121198400700             ILN              
0000000004074710121200000000             ILN              
0000000004074710121398400700             ILN              
0000000004074710121400000000             ILN              
0000000004074710121500000000             ILN              
0000000004074710121698400700             ILN              
0000000004074710121798400700             ILN              
0000000004074710121898400700             ILN              
0000000004074710121900000000             ILN              
0000000004074710122098400700             ILN              
0000000004074710122198400700             ILN              
0000000004074710122200000000             ILN              
0000000004074710122398400700             ILN              
0000000004074710122498400700             ILN              
0000000004074710122500000000             ILN              
0000000004074710122600000000             ILN              
0000000004074710122798400700             ILN              
0000000004074710122898400700             ILN              
0000000004074710122900000000             ILN              
0000000004074710123098400700             ILN              
0000000004074710123198400700             ILN              
0000000004074711010100000000             ILN              
0000000004074711010200000000             ILN              
0000000004075810112900000000             ILN              
0000000004075810113010100700             ILN              
0000000004075810120110100700             ILN              
0000000004075810120200000000             ILN              
0000000004075810120310100500             ILN              
0000000004075810120310490200             ILN              
0000000004075810120410100475             ILN              
0000000004075810120410490225             ILN              
0000000004075810120500000000             ILN              
0000000004075810120610100475             ILN              
0000000004075810120610490225             ILN              
0000000004075810120700000000             ILN              
0000000004075810120810100700             ILN              
0000000004075810120900000000             ILN              
0000000004075810121010100700             ILN              
0000000004075810121100000000             ILN              
0000000004075810121210100700             ILN              
0000000004075810121210420700             ILN              
0000000004075810121310100375             ILN              
0000000004075810121310490325             ILN              
0000000004075810121400000000             ILN              
0000000004075810121510100700             ILN              
0000000004075810121600000000             ILN              
0000000004075810121710100075             ILN              
0000000004075810121710490625             ILN              
0000000004075810121810100475             ILN              
0000000004075810121810490225             ILN              
0000000004075810121900000000             ILN              
0000000004075810122010100475             ILN              
0000000004075810122010490225             ILN              
0000000004075810122100000000             ILN              
0000000004075810122210100475             ILN              
0000000004075810122210490225             ILN              
0000000004075810122310100700             ILN              
0000000004075810122410100700             ILN              
0000000004075810122500000000             ILN              
0000000004075810122600000000             ILN              
0000000004075810122710100475             ILN              
0000000004075810122710490225             ILN              
0000000004075810122800000000             ILN              
0000000004075810122910100700             ILN              
0000000004075810123010100700             ILN              
0000000004075810123110100700             ILN              
0000000004075811010100000000             ILN              
0000000004075811010200000000             ILN              
0000000004085110112910100900             ILN              
0000000004085110113010100800             ILN              
0000000004085110113097100100             ILN              
0000000004085110120110100800             ILN              
0000000004085110120197100100             ILN              
0000000004085110120210100800             ILN              
0000000004085110120300000000             ILN              
0000000004085110120400000000             ILN              
0000000004085110120500000000             ILN              
0000000004085110120697100400             ILN              
0000000004085110120700000000             ILN              
0000000004085110120810100800             ILN              
0000000004085110120910100700             ILN              
0000000004085110121010100700             ILN              
0000000004085110121110100900             ILN              
0000000004085110121200000000             ILN              
0000000004085110121310100800             ILN              
0000000004085110121400000000             ILN              
0000000004085110121500000000             ILN              
0000000004085110121610100600             ILN              
0000000004085110121710100800             ILN              
0000000004085110121810100600             ILN              
0000000004085110121910100700             ILN              
0000000004085110121910420700             ILN              
0000000004085110122000000000             ILN              
0000000004085110122110100800             ILN              
0000000004085110122210100900             ILN              
0000000004085110122310100700             ILN              
0000000004085110122410100400             ILN              
0000000004085110122513500700             ILN              
0000000004085110122600000000             ILN              
0000000004085110122710100900             ILN              
0000000004085110122800000000             ILN              
0000000004085110122910100700             ILN              
0000000004085110123010100800             ILN              
0000000004085110123110100400             ILN              
0000000004085111010113500700             ILN              
0000000004085111010200000000             ILN              
0000000004095710112910100800             ILN              
0000000004095710113000000000             ILN              
0000000004095710120110100500             ILN              
0000000004095710120210100700             ILN              
0000000004095710120310100800             ILN              
0000000004095710120410100700             ILN              
0000000004095710120500000000             ILN              
0000000004095710120610100900             ILN              
0000000004095710120700000000             ILN              
0000000004095710120810100600             ILN              
0000000004095710120910100700             ILN              
0000000004095710121010100700             ILN              
0000000004095710121110100600             ILN              
0000000004095710121200000000             ILN              
0000000004095710121310100700             ILN              
0000000004095710121400000000             ILN              
0000000004095710121510100700             ILN              
0000000004095710121610100700             ILN              
0000000004095710121710100700             ILN              
0000000004095710121800000000             ILN              
0000000004095710121910100700             ILN              
0000000004095710121910420700             ILN              
0000000004095710122010100800             ILN              
0000000004095710122100000000             ILN              
0000000004095710122210100800             ILN              
0000000004095710122310100800             ILN              
0000000004095710122410100400             ILN              
0000000004095710122513500700             ILN              
0000000004095710122600000000             ILN              
0000000004095710122700000000             ILN              
0000000004095710122810100800             ILN              
0000000004095710122910100800             ILN              
0000000004095710123010100800             ILN              
0000000004095710123110100400             ILN              
0000000004095711010113500700             ILN              
0000000004095711010200000000             ILN              
0000000004101910112900000000             ILN              
0000000004101910113010100700             ILN              
0000000004101910120110100700             ILN              
0000000004101910120210100700             ILN              
0000000004101910120310100700             ILN              
0000000004101910120410100700             ILN              
0000000004101910120500000000             ILN              
0000000004101910120600000000             ILN              
0000000004101910120799000700             ILN              
0000000004101910120899000700             ILN              
0000000004101910120910100700             ILN              
0000000004101910121010100700             ILN              
0000000004101910121110100700             ILN              
0000000004101910121200000000             ILN              
0000000004101910121300000000             ILN              
0000000004101910121410100700             ILN              
0000000004101910121510100700             ILN              
0000000004101910121600000000             ILN              
0000000004101910121710100700             ILN              
0000000004101910121810100700             ILN              
0000000004101910121910100700             ILN              
0000000004101910121910420700             ILN              
0000000004101910122010100800             ILN              
0000000004101910122110100800             ILN              
0000000004101910122210100800             ILN              
0000000004101910122300000000             ILN              
0000000004101910122410100400             ILN              
0000000004101910122513500700             ILN              
0000000004101910122600000000             ILN              
0000000004101910122710100800             ILN              
0000000004101910122810100800             ILN              
0000000004101910122910100800             ILN              
0000000004101910123000000000             ILN              
0000000004101910123110100400             ILN              
0000000004101911010113500700             ILN              
0000000004101911010200000000             ILN              
0000000004105010120910100600             ILN              
0000000004105010121010100700             ILN              
0000000004105010121110100700             ILN              
0000000004105010121210100600             ILN              
0000000004105010121210450100             ILN              
0000000004105010121285501200             ILN              
0000000004105010121310100700             ILN              
0000000004105010121410240800             ILN              
0000000004105010121510100700             ILN              
0000000004105010121600000000             ILN              
0000000004105010121710100600             ILN              
0000000004105010121810100700             ILN              
0000000004105010121900000000             ILN              
0000000004105010122010100700             ILN              
0000000004105010122110240800             ILN              
0000000004105010122210100700             ILN              
0000000004105010122300000000             ILN              
0000000004105010122410100600             ILN              
0000000004105010122513500700             ILN              
0000000004105010122600000000             ILN              
0000000004105010122700000000             ILN              
0000000004105010122810100700             ILN              
0000000004105010122910100700             ILN              
0000000004105010123010100700             ILN              
0000000004105010123110100700             ILN              
0000000004105011010113500700             ILN              
0000000004105011010200000000             ILN              
0000000005012110112900000000             ILN              
0000000005012110113010100800             ILN              
0000000005012110120110100300             ILN              
0000000005012110120210100900             ILN              
0000000005012110120310100800             ILN              
0000000005012110120410100700             ILN              
0000000005012110120500000000             ILN              
0000000005012110120600000000             ILN              
0000000005012110120710100700             ILN              
0000000005012110120810100400             ILN              
0000000005012110120910100800             ILN              
0000000005012110121000000000             ILN              
0000000005012110121110100900             ILN              
0000000005012110121210100700             ILN              
0000000005012110121300000000             ILN              
0000000005012110121410100500             ILN              
0000000005012110121510100800             ILN              
0000000005012110121610100900             ILN              
0000000005012110121700000000             ILN              
0000000005012110121810100900             ILN              
0000000005012110121910100400             ILN              
0000000005012110122010100400             ILN              
0000000005012110122110100800             ILN              
0000000005012110122210100700             ILN              
0000000005012110122310100900             ILN              
0000000005012110122400000000             ILN              
0000000005012110122513500700             ILN              
0000000005012110122600000000             ILN              
0000000005012110122700000000             ILN              
0000000005012110122810100700             ILN              
0000000005012110122910100700             ILN              
0000000005012110123010100700             ILN              
0000000005012110123110100700             ILN              
0000000005012111010113500700             ILN              
0000000005012111010200000000             ILN              
