0000000002052409110100000000             CMO              
0000000002052409110210100800             CMO              
0000000002052409110310100800             CMO              
0000000002052409110410100400             CMO              
0000000002052409110500000000             CMO              
0000000002052409110600000000             CMO              
0000000002052409110710100500             CMO              
0000000002052409110800000000             CMO              
0000000002052409110910100800             CMO              
0000000002052409111010100800             CMO              
0000000002052409111100000000             CMO              
0000000002052409111200000000             CMO              
0000000002052409111310100400             CMO              
0000000002052409111410100500             CMO              
0000000002052409111500000000             CMO              
0000000002052409111610100400             CMO              
0000000002052409111700000000             CMO              
0000000002052409111810100800             CMO              
0000000002052409111900000000             CMO              
0000000002052409112010100800             CMO              
0000000002052409112110100500             CMO              
0000000002052409112200000000             CMO              
0000000002052409112310100800             CMO              
0000000002052409112410100800             CMO              
0000000002052409112500000000             CMO              
0000000002052409112610100800             CMO              
0000000002052409112710100800             CMO              
0000000002052409112800000000             CMO              
0000000002052409112910410700             CMO              
0000000002052409113010100600             CMO              
0000000004005609110100000000             CMO              
0000000004005609110200000000             CMO              
0000000004005609110300000000             CMO              
0000000004005609110410100700             CMO              
0000000004005609110510100400             CMO              
0000000004005609110610100600             CMO              
0000000004005609110700000000             CMO              
0000000004005609110800000000             CMO              
0000000004005609110900000000             CMO              
0000000004005609111000000000             CMO              
0000000004005609111113500500             CMO              
0000000004005609111200000000             CMO              
0000000004005609111310100500             CMO              
0000000004005609111410100700             CMO              
0000000004005609111410140050             CMO              
0000000004005609111500000000             CMO              
0000000004005609111600000000             CMO              
0000000004005609111700000000             CMO              
0000000004005609111810100500             CMO              
0000000004005609111900000000             CMO              
0000000004005609112010100500             CMO              
0000000004005609112110100700             CMO              
0000000004005609112200000000             CMO              
0000000004005609112300000000             CMO              
0000000004005609112400000000             CMO              
0000000004005609112510100750             CMO              
0000000004005609112600000000             CMO              
0000000004005609112710100500             CMO              
0000000004005609112810100450             CMO              
0000000004005609112900000000             CMO              
0000000004005609113000000000             CMO              
0000000004006309110100000000             CMO              
0000000004006309110210100750             CMO              
0000000004006309110398060500             CMO              
0000000004006309110498060550             CMO              
0000000004006309110510100500             CMO              
0000000004006309110600000000             CMO              
0000000004006309110710100500             CMO              
0000000004006309110800000000             CMO              
0000000004006309110910100500             CMO              
0000000004006309111098060500             CMO              
0000000004006309111100000000             CMO              
0000000004006309111298060550             CMO              
0000000004006309111310100750             CMO              
0000000004006309111410100500             CMO              
0000000004006309111410140050             CMO              
0000000004006309111500000000             CMO              
0000000004006309111610100500             CMO              
0000000004006309111798060500             CMO              
0000000004006309111810100750             CMO              
0000000004006309111998060550             CMO              
0000000004006309112000000000             CMO              
0000000004006309112199000500             CMO              
0000000004006309112200000000             CMO              
0000000004006309112399000750             CMO              
0000000004006309112498060500             CMO              
0000000004006309112599000500             CMO              
0000000004006309112699000500             CMO              
0000000004006309112798060550             CMO              
0000000004006309112800000000             CMO              
0000000004006309112900000000             CMO              
0000000004006309113099000750             CMO              
0000000004006409110100000000             CMO              
0000000004006409110298060600             CMO              
0000000004006409110310100500             CMO              
0000000004006409110410100750             CMO              
0000000004006409110510100500             CMO              
0000000004006409110698060750             CMO              
0000000004006409110700000000             CMO              
0000000004006409110800000000             CMO              
0000000004006409110910100500             CMO              
0000000004006409111010100500             CMO              
0000000004006409111100000000             CMO              
0000000004006409111210100750             CMO              
0000000004006409111398060600             CMO              
0000000004006409111498060750             CMO              
0000000004006409111500000000             CMO              
0000000004006409111698060600             CMO              
0000000004006409111710100500             CMO              
0000000004006409111810100750             CMO              
0000000004006409111910100500             CMO              
0000000004006409112098060750             CMO              
0000000004006409112100000000             CMO              
0000000004006409112200000000             CMO              
0000000004006409112398060600             CMO              
0000000004006409112410100500             CMO              
0000000004006409112510100750             CMO              
0000000004006409112610100500             CMO              
0000000004006409112798060750             CMO              
0000000004006409112800000000             CMO              
0000000004006409112900000000             CMO              
0000000004006409113098060600             CMO              
0000000004013109110100000000             CMO              
0000000004013109110210100750             CMO              
0000000004013109110310100500             CMO              
0000000004013109110498060550             CMO              
0000000004013109110598060500             CMO              
0000000004013109110610100500             CMO              
0000000004013109110700000000             CMO              
0000000004013109110800000000             CMO              
0000000004013109110910100500             CMO              
0000000004013109111010100800             CMO              
0000000004013109111100000000             CMO              
0000000004013109111298060550             CMO              
0000000004013109111310100450             CMO              
0000000004013109111310130300             CMO              
0000000004013109111498060500             CMO              
0000000004013109111500000000             CMO              
0000000004013109111610100750             CMO              
0000000004013109111710100400             CMO              
0000000004013109111714700100             CMO              
0000000004013109111898060550             CMO              
0000000004013109111998060500             CMO              
0000000004013109112010100500             CMO              
0000000004013109112100000000             CMO              
0000000004013109112200000000             CMO              
0000000004013109112310100750             CMO              
0000000004013109112498060550             CMO              
0000000004013109112598060500             CMO              
0000000004013109112600000000             CMO              
0000000004013109112710100500             CMO              
0000000004013109112810100500             CMO              
0000000004013109112900000000             CMO              
0000000004013109113010100750             CMO              
0000000004013309110100000000             CMO              
0000000004013309110210100750             CMO              
0000000004013309110310100500             CMO              
0000000004013309110498060450             CMO              
0000000004013309110510100500             CMO              
0000000004013309110600000000             CMO              
0000000004013309110798060500             CMO              
0000000004013309110800000000             CMO              
0000000004013309110998060450             CMO              
0000000004013309111098060500             CMO              
0000000004013309111100000000             CMO              
0000000004013309111212600750             CMO              
0000000004013309111312600500             CMO              
0000000004013309111412600500             CMO              
0000000004013309111500000000             CMO              
0000000004013309111610100500             CMO              
0000000004013309111798060450             CMO              
0000000004013309111898060500             CMO              
0000000004013309111910100650             CMO              
0000000004013309111914700100             CMO              
0000000004013309112000000000             CMO              
0000000004013309112110100500             CMO              
0000000004013309112200000000             CMO              
0000000004013309112310100500             CMO              
0000000004013309112410100500             CMO              
0000000004013309112510100750             CMO              
0000000004013309112698060500             CMO              
0000000004013309112798060450             CMO              
0000000004013309112800000000             CMO              
0000000004013309112900000000             CMO              
0000000004013309113010100500             CMO              
0000000004013709110100000000             CMO              
0000000004013709110299000800             CMO              
0000000004013709110399000450             CMO              
0000000004013709110499000500             CMO              
0000000004013709110598060450             CMO              
0000000004013709110698060500             CMO              
0000000004013709110700000000             CMO              
0000000004013709110800000000             CMO              
0000000004013709110999000750             CMO              
0000000004013709111099000500             CMO              
0000000004013709111100000000             CMO              
0000000004013709111298060500             CMO              
0000000004013709111398060450             CMO              
0000000004013709111499000500             CMO              
0000000004013709111500000000             CMO              
0000000004013709111699000750             CMO              
0000000004013709111799000500             CMO              
0000000004013709111899000500             CMO              
0000000004013709111998060450             CMO              
0000000004013709112098060500             CMO              
0000000004013709112100000000             CMO              
0000000004013709112200000000             CMO              
0000000004013709112399000750             CMO              
0000000004013709112499000500             CMO              
0000000004013709112599000500             CMO              
0000000004013709112698060450             CMO              
0000000004013709112798060500             CMO              
0000000004013709112800000000             CMO              
0000000004013709112900000000             CMO              
0000000004013709113099000750             CMO              
0000000004030009110100000000             CMO              
0000000004030009110210100600             CMO              
0000000004030009110310100600             CMO              
0000000004030009110410100350             CMO              
0000000004030009110510100600             CMO              
0000000004030009110610100550             CMO              
0000000004030009110700000000             CMO              
0000000004030009110800000000             CMO              
0000000004030009110910100600             CMO              
0000000004030009111010100600             CMO              
0000000004030009111100000000             CMO              
0000000004030009111210100600             CMO              
0000000004030009111310100450             CMO              
0000000004030009111497100450             CMO              
0000000004030009111500000000             CMO              
0000000004030009111610100600             CMO              
0000000004030009111710100600             CMO              
0000000004030009111810100350             CMO              
0000000004030009111910100600             CMO              
0000000004030009112010100550             CMO              
0000000004030009112100000000             CMO              
0000000004030009112200000000             CMO              
0000000004030009112312600600             CMO              
0000000004030009112412600600             CMO              
0000000004030009112512600350             CMO              
0000000004030009112612600600             CMO              
0000000004030009112712600450             CMO              
0000000004030009112797100100             CMO              
0000000004030009112800000000             CMO              
0000000004030009112900000000             CMO              
0000000004030009113010100600             CMO              
0000000004030909110100000000             CMO              
0000000004030909110200000000             CMO              
0000000004030909110310100400             CMO              
0000000004030909110410100800             CMO              
0000000004030909110510100800             CMO              
0000000004030909110610100700             CMO              
0000000004030909110710100800             CMO              
0000000004030909110710140050             CMO              
0000000004030909110800000000             CMO              
0000000004030909110910100800             CMO              
0000000004030909111010100400             CMO              
0000000004030909111113500700             CMO              
0000000004030909111210100800             CMO              
0000000004030909111310100800             CMO              
0000000004030909111310130350             CMO              
0000000004030909111400000000             CMO              
0000000004030909111500000000             CMO              
0000000004030909111600000000             CMO              
0000000004030909111710100400             CMO              
0000000004030909111810100800             CMO              
0000000004030909111910100800             CMO              
0000000004030909112000000000             CMO              
0000000004030909112110100800             CMO              
0000000004030909112110140050             CMO              
0000000004030909112200000000             CMO              
0000000004030909112312600800             CMO              
0000000004030909112412600800             CMO              
0000000004030909112512600800             CMO              
0000000004030909112612600400             CMO              
0000000004030909112712600700             CMO              
0000000004030909112800000000             CMO              
0000000004030909112900000000             CMO              
0000000004030909113012600700             CMO              
0000000004031409110100000000             CMO              
0000000004031409110200000000             CMO              
0000000004031409110310100800             CMO              
0000000004031409110410100300             CMO              
0000000004031409110414700100             CMO              
0000000004031409110500000000             CMO              
0000000004031409110610100800             CMO              
0000000004031409110710100800             CMO              
0000000004031409110710140050             CMO              
0000000004031409110800000000             CMO              
0000000004031409110910100800             CMO              
0000000004031409111000000000             CMO              
0000000004031409111100000000             CMO              
0000000004031409111210100800             CMO              
0000000004031409111310100400             CMO              
0000000004031409111310130350             CMO              
0000000004031409111410100800             CMO              
0000000004031409111410140050             CMO              
0000000004031409111500000000             CMO              
0000000004031409111610100800             CMO              
0000000004031409111700000000             CMO              
0000000004031409111810100400             CMO              
0000000004031409111900000000             CMO              
0000000004031409112010100800             CMO              
0000000004031409112110100500             CMO              
0000000004031409112114700300             CMO              
0000000004031409112200000000             CMO              
0000000004031409112310100800             CMO              
0000000004031409112400000000             CMO              
0000000004031409112510100400             CMO              
0000000004031409112600000000             CMO              
0000000004031409112710100800             CMO              
0000000004031409112810100800             CMO              
0000000004031409112810140050             CMO              
0000000004031409112900000000             CMO              
0000000004031409113000000000             CMO              
0000000004032009110100000000             CMO              
0000000004032009110200000000             CMO              
0000000004032009110300000000             CMO              
0000000004032009110410100700             CMO              
0000000004032009110414700100             CMO              
0000000004032009110510100800             CMO              
0000000004032009110600000000             CMO              
0000000004032009110710100400             CMO              
0000000004032009110710140050             CMO              
0000000004032009110800000000             CMO              
0000000004032009110900000000             CMO              
0000000004032009111010100700             CMO              
0000000004032009111014700100             CMO              
0000000004032009111100000000             CMO              
0000000004032009111200000000             CMO              
0000000004032009111310100800             CMO              
0000000004032009111410100400             CMO              
0000000004032009111500000000             CMO              
0000000004032009111610100400             CMO              
0000000004032009111710100700             CMO              
0000000004032009111714700100             CMO              
0000000004032009111800000000             CMO              
0000000004032009111910100800             CMO              
0000000004032009112000000000             CMO              
0000000004032009112100000000             CMO              
0000000004032009112200000000             CMO              
0000000004032009112310100600             CMO              
0000000004032009112314700200             CMO              
0000000004032009112400000000             CMO              
0000000004032009112500000000             CMO              
0000000004032009112610100800             CMO              
0000000004032009112700000000             CMO              
0000000004032009112810100400             CMO              
0000000004032009112810140050             CMO              
0000000004032009112900000000             CMO              
0000000004032009113010100800             CMO              
0000000004032209110100000000             CMO              
0000000004032209110213600450             CMO              
0000000004032209110310100700             CMO              
0000000004032209110400000000             CMO              
0000000004032209110500000000             CMO              
0000000004032209110610100350             CMO              
0000000004032209110710100600             CMO              
0000000004032209110797100100             CMO              
0000000004032209110800000000             CMO              
0000000004032209110910100800             CMO              
0000000004032209111000000000             CMO              
0000000004032209111100000000             CMO              
0000000004032209111210100700             CMO              
0000000004032209111310100700             CMO              
0000000004032209111310130300             CMO              
0000000004032209111400000000             CMO              
0000000004032209111500000000             CMO              
0000000004032209111600000000             CMO              
0000000004032209111710100800             CMO              
0000000004032209111800000000             CMO              
0000000004032209111910100700             CMO              
0000000004032209112010100700             CMO              
0000000004032209112100000000             CMO              
0000000004032209112200000000             CMO              
0000000004032209112310100600             CMO              
0000000004032209112397100200             CMO              
0000000004032209112400000000             CMO              
0000000004032209112500000000             CMO              
0000000004032209112610100700             CMO              
0000000004032209112700000000             CMO              
0000000004032209112810100700             CMO              
0000000004032209112810140050             CMO              
0000000004032209112900000000             CMO              
0000000004032209113000000000             CMO              
0000000004032909110100000000             CMO              
0000000004032909110210100800             CMO              
0000000004032909110300000000             CMO              
0000000004032909110400000000             CMO              
0000000004032909110510100700             CMO              
0000000004032909110514700100             CMO              
0000000004032909110600000000             CMO              
0000000004032909110710100800             CMO              
0000000004032909110710140050             CMO              
0000000004032909110800000000             CMO              
0000000004032909110910100800             CMO              
0000000004032909111010100400             CMO              
0000000004032909111100000000             CMO              
0000000004032909111200000000             CMO              
0000000004032909111310100400             CMO              
0000000004032909111310130350             CMO              
0000000004032909111410100700             CMO              
0000000004032909111414700100             CMO              
0000000004032909111500000000             CMO              
0000000004032909111610100800             CMO              
0000000004032909111710100800             CMO              
0000000004032909111800000000             CMO              
0000000004032909111910100700             CMO              
0000000004032909111914700100             CMO              
0000000004032909112000000000             CMO              
0000000004032909112100000000             CMO              
0000000004032909112200000000             CMO              
0000000004032909112300000000             CMO              
0000000004032909112410100650             CMO              
0000000004032909112497100150             CMO              
0000000004032909112500000000             CMO              
0000000004032909112610100800             CMO              
0000000004032909112700000000             CMO              
0000000004032909112810100800             CMO              
0000000004032909112810140050             CMO              
0000000004032909112900000000             CMO              
0000000004032909113000000000             CMO              
0000000004036109110100000000             CMO              
0000000004036109110298400800             CMO              
0000000004036109110398400800             CMO              
0000000004036109110498400400             CMO              
0000000004036109110500000000             CMO              
0000000004036109110600000000             CMO              
0000000004036109110700000000             CMO              
0000000004036109110800000000             CMO              
0000000004036109110900000000             CMO              
0000000004036109111000000000             CMO              
0000000004036109111100000000             CMO              
0000000004036109111210100700             CMO              
0000000004036109111310100500             CMO              
0000000004036109111310130050             CMO              
0000000004036109111410100800             CMO              
0000000004036109111500000000             CMO              
0000000004036109111600000000             CMO              
0000000004036109111710100800             CMO              
0000000004036109111800000000             CMO              
0000000004036109111910100800             CMO              
0000000004036109112000000000             CMO              
0000000004036109112110100400             CMO              
0000000004036109112200000000             CMO              
0000000004036109112300000000             CMO              
0000000004036109112410100500             CMO              
0000000004036109112500000000             CMO              
0000000004036109112610100800             CMO              
0000000004036109112710100700             CMO              
0000000004036109112800000000             CMO              
0000000004036109112900000000             CMO              
0000000004036109113010100800             CMO              
0000000004041209110100000000             CMO              
0000000004041209110212900800             CMO              
0000000004041209110312900450             CMO              
0000000004041209110497100500             CMO              
0000000004041209110598060550             CMO              
0000000004041209110698060500             CMO              
0000000004041209110700000000             CMO              
0000000004041209110800000000             CMO              
0000000004041209110910100500             CMO              
0000000004041209111010100500             CMO              
0000000004041209111100000000             CMO              
0000000004041209111210100650             CMO              
0000000004041209111212900100             CMO              
0000000004041209111398060550             CMO              
0000000004041209111498060500             CMO              
0000000004041209111500000000             CMO              
0000000004041209111610100500             CMO              
0000000004041209111697100100             CMO              
0000000004041209111798060550             CMO              
0000000004041209111898060500             CMO              
0000000004041209111910100750             CMO              
0000000004041209112000000000             CMO              
0000000004041209112110100400             CMO              
0000000004041209112200000000             CMO              
0000000004041209112300000000             CMO              
0000000004041209112410100750             CMO              
0000000004041209112500000000             CMO              
0000000004041209112600000000             CMO              
0000000004041209112710100500             CMO              
0000000004041209112810100500             CMO              
0000000004041209112900000000             CMO              
0000000004041209113010100500             CMO              
0000000004049009110100000000             CMO              
0000000004049009110298060500             CMO              
0000000004049009110310100500             CMO              
0000000004049009110498060550             CMO              
0000000004049009110500000000             CMO              
0000000004049009110610100750             CMO              
0000000004049009110710100400             CMO              
0000000004049009110714700100             CMO              
0000000004049009110800000000             CMO              
0000000004049009110910100500             CMO              
0000000004049009111010100500             CMO              
0000000004049009111100000000             CMO              
0000000004049009111298060500             CMO              
0000000004049009111310100750             CMO              
0000000004049009111498060550             CMO              
0000000004049009111500000000             CMO              
0000000004049009111610100500             CMO              
0000000004049009111798060500             CMO              
0000000004049009111898060550             CMO              
0000000004049009111900000000             CMO              
0000000004049009112010100550             CMO              
0000000004049009112014700200             CMO              
0000000004049009112110100500             CMO              
0000000004049009112200000000             CMO              
0000000004049009112310100500             CMO              
0000000004049009112410100750             CMO              
0000000004049009112598060500             CMO              
0000000004049009112698060550             CMO              
0000000004049009112700000000             CMO              
0000000004049009112810100500             CMO              
0000000004049009112900000000             CMO              
0000000004049009113010100500             CMO              
0000000004052409110100000000             CMO              
0000000004052409110295200800             CMO              
0000000004052409110395200800             CMO              
0000000004052409110495200500             CMO              
0000000004052409110595200400             CMO              
0000000004052409110600000000             CMO              
0000000004052409110700000000             CMO              
0000000004052409110800000000             CMO              
0000000004052409110995200800             CMO              
0000000004052409111095200800             CMO              
0000000004052409111100000000             CMO              
0000000004052409111295200500             CMO              
0000000004052409111395200400             CMO              
0000000004052409111400000000             CMO              
0000000004052409111500000000             CMO              
0000000004052409111695200800             CMO              
0000000004052409111795200700             CMO              
0000000004052409111895200500             CMO              
0000000004052409111995200500             CMO              
0000000004052409112000000000             CMO              
0000000004052409112100000000             CMO              
0000000004052409112200000000             CMO              
0000000004052409112395200800             CMO              
0000000004052409112495200800             CMO              
0000000004052409112595200400             CMO              
0000000004052409112695200500             CMO              
0000000004052409112700000000             CMO              
0000000004052409112800000000             CMO              
0000000004052409112900000000             CMO              
0000000004052409113095200800             CMO              
0000000004059409110100000000             CMO              
0000000004059409110200000000             CMO              
0000000004059409110310100650             CMO              
0000000004059409110312900150             CMO              
0000000004059409110400000000             CMO              
0000000004059409110510100800             CMO              
0000000004059409110600000000             CMO              
0000000004059409110710100800             CMO              
0000000004059409110800000000             CMO              
0000000004059409110900000000             CMO              
0000000004059409111000000000             CMO              
0000000004059409111100000000             CMO              
0000000004059409111210100800             CMO              
0000000004059409111310100800             CMO              
0000000004059409111410100800             CMO              
0000000004059409111500000000             CMO              
0000000004059409111610100800             CMO              
0000000004059409111700000000             CMO              
0000000004059409111800000000             CMO              
0000000004059409111900000000             CMO              
0000000004059409112097100800             CMO              
0000000004059409112110100800             CMO              
0000000004059409112200000000             CMO              
0000000004059409112300000000             CMO              
0000000004059409112400000000             CMO              
0000000004059409112510100650             CMO              
0000000004059409112597100150             CMO              
0000000004059409112610100650             CMO              
0000000004059409112612900075             CMO              
0000000004059409112697100075             CMO              
0000000004059409112700000000             CMO              
0000000004059409112810100650             CMO              
0000000004059409112897100150             CMO              
0000000004059409112900000000             CMO              
0000000004059409113095200800             CMO              
0000000004076709110100000000             CMO              
0000000004076709110210230700             CMO              
0000000004076709110300000000             CMO              
0000000004076709110410100800             CMO              
0000000004076709110510230400             CMO              
0000000004076709110610100800             CMO              
0000000004076709110710100800             CMO              
0000000004076709110800000000             CMO              
0000000004076709110910230700             CMO              
0000000004076709111010100800             CMO              
0000000004076709111100000000             CMO              
0000000004076709111210230400             CMO              
0000000004076709111310100800             CMO              
0000000004076709111410100700             CMO              
0000000004076709111414700100             CMO              
0000000004076709111500000000             CMO              
0000000004076709111610230700             CMO              
0000000004076709111700000000             CMO              
0000000004076709111810100800             CMO              
0000000004076709111910230400             CMO              
0000000004076709112010100800             CMO              
0000000004076709112110100800             CMO              
0000000004076709112200000000             CMO              
0000000004076709112310230700             CMO              
0000000004076709112410100800             CMO              
0000000004076709112510100800             CMO              
0000000004076709112610230400             CMO              
0000000004076709112710100800             CMO              
0000000004076709112800000000             CMO              
0000000004076709112900000000             CMO              
0000000004076709113010230650             CMO              
0000000004084909110100000000             CMO              
0000000004084909110210230700             CMO              
0000000004084909110310230400             CMO              
0000000004084909110410100800             CMO              
0000000004084909110500000000             CMO              
0000000004084909110610100800             CMO              
0000000004084909110710100800             CMO              
0000000004084909110800000000             CMO              
0000000004084909110910230700             CMO              
0000000004084909111010230400             CMO              
0000000004084909111100000000             CMO              
0000000004084909111210100100             CMO              
0000000004084909111299000700             CMO              
0000000004084909111310100800             CMO              
0000000004084909111410100800             CMO              
0000000004084909111500000000             CMO              
0000000004084909111610230700             CMO              
0000000004084909111710230400             CMO              
0000000004084909111810100800             CMO              
0000000004084909111910100800             CMO              
0000000004084909112000000000             CMO              
0000000004084909112110100800             CMO              
0000000004084909112200000000             CMO              
0000000004084909112310230700             CMO              
0000000004084909112410230400             CMO              
0000000004084909112510100800             CMO              
0000000004084909112600000000             CMO              
0000000004084909112710100800             CMO              
0000000004084909112810100800             CMO              
0000000004084909112900000000             CMO              
0000000004084909113010230650             CMO              
0000000004087309110100000000             CJE              
0000000004087309110200000000             CMO              
0000000004087309110313550700             CMO              
0000000004087309110410100800             CMO              
0000000004087309110510100800             CMO              
0000000004087309110610100400             CMO              
0000000004087309110710100800             CMO              
0000000004087309110800000000             CMO              
0000000004087309110900000000             CMO              
0000000004087309111010100800             CMO              
0000000004087309111113500700             CMO              
0000000004087309111210100800             CMO              
0000000004087309111310100400             CMO              
0000000004087309111310130050             CMO              
0000000004087309111410100800             CMO              
0000000004087309111500000000             CMO              
0000000004087309111600000000             CMO              
0000000004087309111710100750             CMO              
0000000004087309111810100800             CMO              
0000000004087309111910100800             CMO              
0000000004087309112010100350             CMO              
0000000004087309112110100800             CMO              
0000000004087309112200000000             CMO              
0000000004087309112300000000             CMO              
0000000004087309112410100800             CMO              
0000000004087309112510100800             CMO              
0000000004087309112610100800             CMO              
0000000004087309112710100300             CMO              
0000000004087309112810100800             CMO              
0000000004087309112900000000             CMO              
0000000004087309113010100800             CMO              
0000000004088709110100000000             CMO              
0000000004088709110210230700             CMO              
0000000004088709110310100800             CMO              
0000000004088709110400000000             CMO              
0000000004088709110510230400             CMO              
0000000004088709110610100800             CMO              
0000000004088709110710100800             CMO              
0000000004088709110800000000             CMO              
0000000004088709110910230700             CMO              
0000000004088709111010100800             CMO              
0000000004088709111100000000             CMO              
0000000004088709111210230400             CMO              
0000000004088709111310100800             CMO              
0000000004088709111410100800             CMO              
0000000004088709111500000000             CMO              
0000000004088709111610230700             CMO              
0000000004088709111710100800             CMO              
0000000004088709111800000000             CMO              
0000000004088709111910230400             CMO              
0000000004088709112010100800             CMO              
0000000004088709112110100800             CMO              
0000000004088709112200000000             CMO              
0000000004088709112310230700             CMO              
0000000004088709112400000000             CMO              
0000000004088709112510100800             CMO              
0000000004088709112610230400             CMO              
0000000004088709112710100800             CMO              
0000000004088709112810100800             CMO              
0000000004088709112900000000             CMO              
0000000004088709113010230650             CMO              
0000000004091409110100000000             CMO              
0000000004091409110210100800             CMO              
0000000004091409110310100800             CMO              
0000000004091409110410100400             CMO              
0000000004091409110510100800             CMO              
0000000004091409110610100700             CMO              
0000000004091409110700000000             CMO              
0000000004091409110810410700             CMO              
0000000004091409110910100800             CMO              
0000000004091409111010100800             CMO              
0000000004091409111100000000             CMO              
0000000004091409111210100400             CMO              
0000000004091409111310100400             CMO              
0000000004091409111310130050             CMO              
0000000004091409111410100800             CMO              
0000000004091409111510410400             CMO              
0000000004091409111610100800             CMO              
0000000004091409111710100800             CMO              
0000000004091409111800000000             CMO              
0000000004091409111910100800             CMO              
0000000004091409112000000000             CMO              
0000000004091409112110100400             CMO              
0000000004091409112200000000             CMO              
0000000004091409112310100500             CMO              
0000000004091409112410100800             CMO              
0000000004091409112500000000             CMO              
0000000004091409112600000000             CMO              
0000000004091409112710100800             CMO              
0000000004091409112810100800             CMO              
0000000004091409112910410100             CMO              
0000000004091409113000000000             CMO              
0000000005022309110198760800             CMO              
0000000005022309110200000000             CMO              
0000000005022309110312900700             CMO              
0000000005022309110410100025             CMO              
0000000005022309110410100900             CMO              
0000000005022309110512900700             CMO              
0000000005022309110612900700             CMO              
0000000005022309110712900700             CMO              
0000000005022309110898760225             CMO              
0000000005022309110900000000             CMO              
0000000005022309111010100650             CMO              
0000000005022309111014700100             CMO              
0000000005022309111113500700             CMO              
0000000005022309111210100025             CMO              
0000000005022309111210100900             CMO              
0000000005022309111310100225             CMO              
0000000005022309111310100900             CMO              
0000000005022309111400000000             CMO              
0000000005022309111500000000             CMO              
0000000005022309111600000000             CMO              
0000000005022309111710100025             CMO              
0000000005022309111710100900             CMO              
0000000005022309111810100025             CMO              
0000000005022309111810100900             CMO              
0000000005022309111910100025             CMO              
0000000005022309111910100900             CMO              
0000000005022309112000000000             CMO              
0000000005022309112110100025             CMO              
0000000005022309112110100900             CMO              
0000000005022309112298760200             CMO              
0000000005022309112300000000             CMO              
0000000005022309112410100025             CMO              
0000000005022309112410100900             CMO              
0000000005022309112510100025             CMO              
0000000005022309112510100650             CMO              
0000000005022309112510510250             CMO              
0000000005022309112610100025             CMO              
0000000005022309112610100900             CMO              
0000000005022309112710100550             CMO              
0000000005022309112812900700             CMO              
0000000005022309112998760525             CMO              
0000000005022309113010100025             CMO              
0000000005022309113010100900             CMO              
