0000000080011210112210100850             166              
0000000080011210112310100850             166              
0000000080011210112410100850             166              
0000000080011210112510100850             166              
0000000080011210112610100900             166              
0000000080011210112700000000             166              
0000000080011210112810410100             166              
