0000000080011210112210100830             166              
0000000080011210112310100830             166              
0000000080011210112410100830             166              
0000000080011210112510100830             166              
0000000080011210112600000000             166              
0000000080011210112700000000             166              
0000000080011210112810410100             166              
