0000000080052710110110100900             108              
0000000080052710110210100900             108              
0000000080052710110310100900             108              
0000000080052710110400000000             108              
0000000080052710110510100845             108              
0000000080052710110600000000             108              
0000000080052710110710410045             108              
