0000000004073410041210490125             NDI              
0000000004073410041210490900             NDI              
0000000004073410041215500125             NDI              
0000000004073410041300000000             NDI              
0000000004073410041410100050             NDI              
0000000004073410041410490225             NDI              
0000000004073410041500000000             NDI              
0000000004073410041610100800             NDI              
0000000004073410041700000000             NDI              
0000000004073410041810100300             NDI              
0000000004073410041810420300             NDI              
