0000000002064009113010100750             BOV              
0000000002064009120110100750             BOV              
0000000002064009120212600750             BOV              
0000000002064009120312600750             BOV              
0000000002064009120412600500             BOV              
0000000002064009120500000000             BOV              
0000000002064009120600000000             BOV              
0000000002064009120712600750             BOV              
0000000002064009120812600750             BOV              
0000000002064009120912600700             BOV              
0000000002064009120913550050             BOV              
0000000002064009121013550750             BOV              
0000000002064009121113550500             BOV              
0000000002064009121200000000             BOV              
0000000002064009121300000000             BOV              
0000000002064009121410100750             BOV              
0000000002064009121500000000             BOV              
0000000002064009121610100750             BOV              
0000000002064009121710100625             BOV              
0000000002064009121800000000             BOV              
0000000002064009121910100750             BOV              
0000000002064009122010100625             BOV              
0000000002064009122010420625             BOV              
0000000002064009122110100750             BOV              
0000000002064009122210100675             BOV              
0000000002064009122310100750             BOV              
0000000002064009122410100625             BOV              
0000000002064009122513500700             BOV              
0000000002064009122600000000             BOV              
0000000002064009122700000000             BOV              
0000000002064009122810100750             BOV              
0000000002064009122900000000             BOV              
0000000002064009123010100750             BOV              
0000000002064009123110100625             BOV              
0000000002064010010113500700             BOV              
0000000002064010010210100675             BOV              
0000000002064010010300000000             BOV              
0000000002080709113000000000             BOV              
0000000002080709120110100400             BOV              
0000000002080709120210100750             BOV              
0000000002080709120310100500             BOV              
0000000002080709120410100600             BOV              
0000000002080709120510100750             BOV              
0000000002080709120600000000             BOV              
0000000002080709120799000400             BOV              
0000000002080709120899000400             BOV              
0000000002080709120999000700             BOV              
0000000002080709121000000000             BOV              
0000000002080709121110100750             BOV              
0000000002080709121210100750             BOV              
0000000002080709121300000000             BOV              
0000000002080709121410100600             BOV              
0000000002080709121510100600             BOV              
0000000002080709121610100600             BOV              
0000000002080709121710100600             BOV              
0000000002080709121810100600             BOV              
0000000002080709121900000000             BOV              
0000000002080709122000000000             BOV              
0000000002080709122110100600             BOV              
0000000002080709122210100425             BOV              
0000000002080709122310100600             BOV              
0000000002080709122410100625             BOV              
0000000002080709122500000000             BOV              
0000000002080709122610100750             BOV              
0000000002080709122700000000             BOV              
0000000002080709122810100500             BOV              
0000000002080709122910100750             BOV              
0000000002080709123000000000             BOV              
0000000002080709123110100650             BOV              
0000000002080710010100000000             BOV              
0000000002080710010210100750             BOV              
0000000002080710010310100625             BOV              
0000000002080710010310410275             BOV              
0000000002080710010310420625             BOV              
0000000002086709121400000000             BOV              
0000000002086709121510100400             BOV              
0000000002086709121600000000             BOV              
0000000002086709121710100600             BOV              
0000000002086709121810100400             BOV              
0000000002086709121910100600             BOV              
0000000002086709122000000000             BOV              
0000000002086709122110100600             BOV              
0000000002086709122200000000             BOV              
0000000002086709122310100650             BOV              
0000000002086709122400000000             BOV              
0000000002086709122500000000             BOV              
0000000002086709122610100750             BOV              
0000000002086709122700000000             BOV              
0000000002086709122800000000             BOV              
0000000002086709122910100750             BOV              
0000000002086709123010100750             BOV              
0000000002086709123110100625             BOV              
0000000002086710010100000000             BOV              
0000000002086710010210100750             BOV              
0000000002086710010310410875             BOV              
0000000005021109113010100800             BOV              
0000000005021109120110100550             BOV              
0000000005021109120298410700             BOV              
0000000005021109120310100900             BOV              
0000000005021109120400000000             BOV              
0000000005021109120510100850             BOV              
0000000005021109120698760300             BOV              
0000000005021109120710100900             BOV              
0000000005021109120810100850             BOV              
0000000005021109120998410700             BOV              
0000000005021109121010510650             BOV              
0000000005021109121110100600             BOV              
0000000005021109121200000000             BOV              
0000000005021109121398760200             BOV              
0000000005021109121410100900             BOV              
0000000005021109121510100900             BOV              
0000000005021109121698410700             BOV              
0000000005021109121710100900             BOV              
0000000005021109121800000000             BOV              
0000000005021109121900000000             BOV              
0000000005021109122010100750             BOV              
0000000005021109122098760650             BOV              
0000000005021109122110100900             BOV              
0000000005021109122212600800             BOV              
0000000005021109122398410700             BOV              
0000000005021109122413550400             BOV              
0000000005021109122513500700             BOV              
0000000005021109122600000000             BOV              
0000000005021109122700000000             BOV              
0000000005021109122800000000             BOV              
0000000005021109122900000000             BOV              
0000000005021109123010100900             BOV              
0000000005021109123110100750             BOV              
0000000005021110010113500700             BOV              
0000000005021110010210100850             BOV              
0000000005021110010310100700             BOV              
0000000005021110010398761100             BOV              
0000000007024409113010100550             BOV              
0000000007024409120100000000             BOV              
0000000007024409120210100750             BOV              
0000000007024409120310100750             BOV              
0000000007024409120410100400             BOV              
0000000007024409120510100750             BOV              
0000000007024409120600000000             BOV              
0000000007024409120700000000             BOV              
0000000007024409120810100400             BOV              
0000000007024409120910100750             BOV              
0000000007024409121010100525             BOV              
0000000007024409121110100450             BOV              
0000000007024409121110490300             BOV              
0000000007024409121210490775             BOV              
0000000007024409121300000000             BOV              
0000000007024409121412600050             BOV              
0000000007024409121414700350             BOV              
0000000007024409121510100550             BOV              
0000000007024409121600000000             BOV              
0000000007024409121710100750             BOV              
0000000007024409121810100750             BOV              
0000000007024409121910100750             BOV              
0000000007024409122000000000             BOV              
0000000007024409122110100400             BOV              
0000000007024409122210100750             BOV              
0000000007024409122310100750             BOV              
0000000007024409122410100650             BOV              
0000000007024409122513500650             BOV              
0000000007024409122600000000             BOV              
0000000007024409122700000000             BOV              
0000000007024409122810490775             BOV              
0000000007024409122910100575             BOV              
0000000007024409123000000000             BOV              
0000000007024409123100000000             BOV              
0000000007024410010113500650             BOV              
0000000007024410010210100550             BOV              
0000000007024410010310100650             BOV              
0000000007024410010310420650             BOV              
0000000007230209113010100550             BOV              
0000000007230209120198060725             BOV              
0000000007230209120210100600             BOV              
0000000007230209120398060725             BOV              
0000000007230209120410100600             BOV              
0000000007230209120500000000             BOV              
0000000007230209120600000000             BOV              
0000000007230209120798060725             BOV              
0000000007230209120898060725             BOV              
0000000007230209120910100550             BOV              
0000000007230209121000000000             BOV              
0000000007230209121113550058             BOV              
0000000007230209121114700542             BOV              
0000000007230209121210100600             BOV              
0000000007230209121300000000             BOV              
0000000007230209121400000000             BOV              
0000000007230209121510100550             BOV              
0000000007230209121610100600             BOV              
0000000007230209121798060725             BOV              
0000000007230209121898060725             BOV              
0000000007230209121910100600             BOV              
0000000007230209122000000000             BOV              
0000000007230209122198060725             BOV              
0000000007230209122210100650             BOV              
0000000007230209122398060725             BOV              
0000000007230209122400000000             BOV              
0000000007230209122513500350             BOV              
0000000007230209122610100750             BOV              
0000000007230209122700000000             BOV              
0000000007230209122810100725             BOV              
0000000007230209122910100725             BOV              
0000000007230209123010100750             BOV              
0000000007230209123110100650             BOV              
0000000007230210010113500350             BOV              
0000000007230210010200000000             BOV              
0000000007230210010310411450             BOV              
0000000007325009113000000000             BOV              
0000000007325009120110100775             BOV              
0000000007325009120210100775             BOV              
0000000007325009120310100425             BOV              
0000000007325009120410100775             BOV              
0000000007325009120510100750             BOV              
0000000007325009120600000000             BOV              
0000000007325009120710100700             BOV              
0000000007325009120713550050             BOV              
0000000007325009120810100750             BOV              
0000000007325009120910100775             BOV              
0000000007325009121010100775             BOV              
0000000007325009121110100450             BOV              
0000000007325009121200000000             BOV              
0000000007325009121300000000             BOV              
0000000007325009121400000000             BOV              
0000000007325009121500000000             BOV              
0000000007325009121610100775             BOV              
0000000007325009121710100525             BOV              
0000000007325009121810100775             BOV              
0000000007325009121910100775             BOV              
0000000007325009122010100650             BOV              
0000000007325009122010420650             BOV              
0000000007325009122100000000             BOV              
0000000007325009122210100575             BOV              
0000000007325009122310100775             BOV              
0000000007325009122410100675             BOV              
0000000007325009122513500700             BOV              
0000000007325009122610100775             BOV              
0000000007325009122700000000             BOV              
0000000007325009122800000000             BOV              
0000000007325009122910100775             BOV              
0000000007325009123010100625             BOV              
0000000007325009123100000000             BOV              
0000000007325010010113500700             BOV              
0000000007325010010210100750             BOV              
0000000007325010010310100650             BOV              
0000000007325010010310420650             BOV              
